FONT STACKS: 
font-family:Arial,Tahoma,Verdana;
font:15px Monaco,Consolas,"Andale Mono","DejaVu Sans Mono",monospace
font-family:"Courier 10 Pitch",Courier,monospace


COLORS:

#00649c

#001f30

#666

#322215

#00121d

#fff

#000

#eee

#e5e5e5

#ccc 

#bbb 

#aaa 

#111

#21759b

#f1f1f1

#446592

#00121d